{
  "message": "ok",
  "total_records": 60,
  "total_pages": 60,
  "previous": null,
  "next": "https://www.swapi.tech/api/planets?page=2&limit=1&expanded=true",
  "results": [
    {
      "properties": {
        "created": "2025-07-20T20:08:24.108Z",
        "edited": "2025-07-20T20:08:24.108Z",
        "climate": "arid",
        "surface_water": "1",
        "name": "Tatooine",
        "diameter": "10465",
        "rotation_period": "23",
        "terrain": "desert",
        "gravity": "1 standard",
        "orbital_period": "304",
        "population": "200000",
        "url": "https://www.swapi.tech/api/planets/1"
      },
      "_id": "5f7254c11b7dfa00041c6fae",
      "description": "A planet.",
      "uid": "1",
      "__v": 2
    }
  ],
  "apiVersion": "1.0",
  "timestamp": "2025-07-21T17:22:55.466Z",
  "support": {
    "contact": "admin@swapi.tech",
    "donate": "https://www.paypal.com/donate/?business=2HGAUVTWGR5T2&no_recurring=0&item_name=Support+Swapi+and+keep+the+galaxy%27s+data+free%21+Your+donation+fuels+open-source+innovation+and+helps+us+grow.+Thank+you%21+%F0%9F%9A%80&currency_code=USD",
    "partnerDiscounts": {
      "saberMasters": {
        "link": "https://www.swapi.tech/partner-discount/sabermasters-swapi",
        "details": "Use this link to automatically get $10 off your purchase!"
      },
      "heartMath": {
        "link": "https://www.heartmath.com/ryanc",
        "details": "Looking for some Jedi-like inner peace? Take 10% off your heart-brain coherence tools from the HeartMath Institute!"
      }
    }
  },
  "social": {
    "discord": "https://discord.gg/zWvA6GPeNG",
    "reddit": "https://www.reddit.com/r/SwapiOfficial/",
    "github": "https://github.com/semperry/swapi/blob/main/CONTRIBUTORS.md"
  }
}
