{
  "message": "ok",
  "total_records": 36,
  "total_pages": 36,
  "previous": "https://www.swapi.tech/api/starships?page=2&limit=1&expanded=true",
  "next": "https://www.swapi.tech/api/starships?page=4&limit=1&expanded=true",
  "results": [
    {
      "properties": {
        "created": "2025-07-20T20:08:24.112Z",
        "edited": "2025-07-20T20:08:24.112Z",
        "consumables": "1 month",
        "name": "Sentinel-class landing craft",
        "cargo_capacity": "180000",
        "passengers": "75",
        "max_atmosphering_speed": "1000",
        "crew": "5",
        "length": "38",
        "model": "Sentinel-class landing craft",
        "cost_in_credits": "240000",
        "manufacturer": "Sienar Fleet Systems, Cyngus Spaceworks",
        "pilots": ["https://www.swapi.tech/api/people/1"],
        "MGLT": "70",
        "starship_class": "landing craft",
        "hyperdrive_rating": "1.0",
        "films": ["https://www.swapi.tech/api/films/1"],
        "url": "https://www.swapi.tech/api/starships/5"
      },
      "_id": "5f63a34fee9fd7000499be20",
      "description": "A Starship",
      "uid": "5",
      "__v": 2
    }
  ],
  "apiVersion": "1.0",
  "timestamp": "2025-07-21T02:31:13.032Z",
  "support": {
    "contact": "admin@swapi.tech",
    "donate": "https://www.paypal.com/donate/?business=2HGAUVTWGR5T2&no_recurring=0&item_name=Support+Swapi+and+keep+the+galaxy%27s+data+free%21+Your+donation+fuels+open-source+innovation+and+helps+us+grow.+Thank+you%21+%F0%9F%9A%80&currency_code=USD",
    "partnerDiscounts": {
      "saberMasters": {
        "link": "https://www.swapi.tech/partner-discount/sabermasters-swapi",
        "details": "Use this link to automatically get $10 off your purchase!"
      },
      "heartMath": {
        "link": "https://www.heartmath.com/ryanc",
        "details": "Looking for some Jedi-like inner peace? Take 10% off your heart-brain coherence tools from the HeartMath Institute!"
      }
    }
  },
  "social": {
    "discord": "https://discord.gg/zWvA6GPeNG",
    "reddit": "https://www.reddit.com/r/SwapiOfficial/",
    "github": "https://github.com/semperry/swapi/blob/main/CONTRIBUTORS.md"
  }
}
