{
  "message": "ok",
  "total_records": 30,
  "total_pages": 9,
  "previous": null,
  "next": "https://www.swapi.tech/api/people?page=2&limit=10&expanded=true",
  "results": [
    {
      "properties": {
        "created": "2025-07-19T19:44:45.285Z",
        "edited": "2025-07-19T19:44:45.285Z",
        "name": "Luke Skywalker",
        "gender": "luke gender",
        "skin_color": "fair",
        "hair_color": "blond",
        "height": "172",
        "eye_color": "blue",
        "mass": "77",
        "homeworld": "https://www.swapi.tech/api/planets/1",
        "birth_year": "19BBY",
        "url": "https://www.swapi.tech/api/people/1"
      },
      "_id": "5f63a36eee9fd7000499be42",
      "description": "A person within the Star Wars universe",
      "uid": "1",
      "__v": 2
    },
    {
      "properties": {
        "created": "2025-07-19T19:44:45.285Z",
        "edited": "2025-07-19T19:44:45.285Z",
        "name": "C-3PO",
        "gender": "n/a",
        "skin_color": "gold",
        "hair_color": "n/a",
        "height": "167",
        "eye_color": "yellow",
        "mass": "75",
        "homeworld": "https://www.swapi.tech/api/planets/1",
        "birth_year": "112BBY",
        "url": "https://www.swapi.tech/api/people/2"
      },
      "_id": "5f63a36eee9fd7000499be43",
      "description": "A person within the Star Wars universe",
      "uid": "2",
      "__v": 2
    },
    {
      "properties": {
        "created": "2025-07-19T19:44:45.285Z",
        "edited": "2025-07-19T19:44:45.285Z",
        "name": "R2-D2",
        "gender": "n/a",
        "skin_color": "white, blue",
        "hair_color": "n/a",
        "height": "96",
        "eye_color": "red",
        "mass": "32",
        "homeworld": "https://www.swapi.tech/api/planets/8",
        "birth_year": "33BBY",
        "url": "https://www.swapi.tech/api/people/3"
      },
      "_id": "5f63a36eee9fd7000499be44",
      "description": "A person within the Star Wars universe",
      "uid": "3",
      "__v": 2
    },
    {
      "properties": {
        "created": "2025-07-19T19:44:45.285Z",
        "edited": "2025-07-19T19:44:45.285Z",
        "name": "Darth Vader",
        "gender": "male",
        "skin_color": "white",
        "hair_color": "none",
        "height": "202",
        "eye_color": "yellow",
        "mass": "136",
        "homeworld": "https://www.swapi.tech/api/planets/1",
        "birth_year": "41.9BBY",
        "url": "https://www.swapi.tech/api/people/4"
      },
      "_id": "5f63a36eee9fd7000499be45",
      "description": "A person within the Star Wars universe",
      "uid": "4",
      "__v": 2
    },
    {
      "properties": {
        "created": "2025-07-19T19:44:45.285Z",
        "edited": "2025-07-19T19:44:45.285Z",
        "name": "Leia Organa",
        "gender": "female",
        "skin_color": "light",
        "hair_color": "brown",
        "height": "150",
        "eye_color": "brown",
        "mass": "49",
        "homeworld": "https://www.swapi.tech/api/planets/2",
        "birth_year": "19BBY",
        "url": "https://www.swapi.tech/api/people/5"
      },
      "_id": "5f63a36eee9fd7000499be46",
      "description": "A person within the Star Wars universe",
      "uid": "5",
      "__v": 2
    },
    {
      "properties": {
        "created": "2025-07-19T19:44:45.285Z",
        "edited": "2025-07-19T19:44:45.285Z",
        "name": "Owen Lars",
        "gender": "male",
        "skin_color": "light",
        "hair_color": "brown, grey",
        "height": "178",
        "eye_color": "blue",
        "mass": "120",
        "homeworld": "https://www.swapi.tech/api/planets/1",
        "birth_year": "52BBY",
        "url": "https://www.swapi.tech/api/people/6"
      },
      "_id": "5f63a36eee9fd7000499be47",
      "description": "A person within the Star Wars universe",
      "uid": "6",
      "__v": 2
    },
    {
      "properties": {
        "created": "2025-07-19T19:44:45.285Z",
        "edited": "2025-07-19T19:44:45.285Z",
        "name": "Beru Whitesun lars",
        "gender": "female",
        "skin_color": "light",
        "hair_color": "brown",
        "height": "165",
        "eye_color": "blue",
        "mass": "75",
        "homeworld": "https://www.swapi.tech/api/planets/1",
        "birth_year": "47BBY",
        "url": "https://www.swapi.tech/api/people/7"
      },
      "_id": "5f63a36eee9fd7000499be48",
      "description": "A person within the Star Wars universe",
      "uid": "7",
      "__v": 2
    },
    {
      "properties": {
        "created": "2025-07-19T19:44:45.285Z",
        "edited": "2025-07-19T19:44:45.285Z",
        "name": "R5-D4",
        "gender": "n/a",
        "skin_color": "white, red",
        "hair_color": "n/a",
        "height": "97",
        "eye_color": "red",
        "mass": "32",
        "homeworld": "https://www.swapi.tech/api/planets/1",
        "birth_year": "unknown",
        "url": "https://www.swapi.tech/api/people/8"
      },
      "_id": "5f63a36eee9fd7000499be49",
      "description": "A person within the Star Wars universe",
      "uid": "8",
      "__v": 2
    },
    {
      "properties": {
        "created": "2025-07-19T19:44:45.285Z",
        "edited": "2025-07-19T19:44:45.285Z",
        "name": "Biggs Darklighter",
        "gender": "male",
        "skin_color": "light",
        "hair_color": "black",
        "height": "183",
        "eye_color": "brown",
        "mass": "84",
        "homeworld": "https://www.swapi.tech/api/planets/1",
        "birth_year": "24BBY",
        "url": "https://www.swapi.tech/api/people/9"
      },
      "_id": "5f63a36eee9fd7000499be4a",
      "description": "A person within the Star Wars universe",
      "uid": "9",
      "__v": 2
    },
    {
      "properties": {
        "created": "2025-07-19T19:44:45.285Z",
        "edited": "2025-07-19T19:44:45.285Z",
        "name": "Obi-Wan Kenobi",
        "gender": "male",
        "skin_color": "fair",
        "hair_color": "auburn, white",
        "height": "182",
        "eye_color": "blue-gray",
        "mass": "77",
        "homeworld": "https://www.swapi.tech/api/planets/20",
        "birth_year": "57BBY",
        "url": "https://www.swapi.tech/api/people/10"
      },
      "_id": "5f63a36eee9fd7000499be4b",
      "description": "A person within the Star Wars universe",
      "uid": "10",
      "__v": 2
    }
  ],
  "apiVersion": "1.0",
  "timestamp": "2025-07-20T07:33:36.842Z",
  "support": {
    "contact": "admin@swapi.tech",
    "donate": "https://www.paypal.com/donate/?business=2HGAUVTWGR5T2&no_recurring=0&item_name=Support+Swapi+and+keep+the+galaxy%27s+data+free%21+Your+donation+fuels+open-source+innovation+and+helps+us+grow.+Thank+you%21+%F0%9F%9A%80&currency_code=USD",
    "partnerDiscounts": {
      "saberMasters": {
        "link": "https://www.swapi.tech/partner-discount/sabermasters-swapi",
        "details": "Use this link to automatically get $10 off your purchase!"
      },
      "heartMath": {
        "link": "https://www.heartmath.com/ryanc",
        "details": "Looking for some Jedi-like inner peace? Take 10% off your heart-brain coherence tools from the HeartMath Institute!"
      }
    }
  },
  "social": {
    "discord": "https://discord.gg/zWvA6GPeNG",
    "reddit": "https://www.reddit.com/r/SwapiOfficial/",
    "github": "https://github.com/semperry/swapi/blob/main/CONTRIBUTORS.md"
  }
}
